…
Or you can get ID by the first letter of a player’s surname:

``` r
pfrscrapr::scrape_pfr_player_ids_by_letter("A")
#> ℹ Starting PFR scrape of players with surnames beginning with A
#> ✔ Starting PFR scrape of players with surnames beginning with A [15.5s]
#> 
#> ℹ Letter A scrape complete
#> ✔ Letter A scrape complete [16ms]
#> 
#> # A tibble: 878 × 3
#>    name                                    ids        letter
#>    <chr>                                   <chr>      <chr> 
#>  1 Isaako Aaitui (NT) 2013-2013            AaitIs00   A     
#>  2 Joe Abbey (E) 1948-1949                 AbbeJo20   A     
#>  3 Fay Abbott (BB-FB-TB-QB-WB-E) 1921-1929 AbboFa20   A     
#>  4 Vince Abbott (K) 1987-1988              abbotvin01 A     
#>  5 Jared Abbrederis (WR) 2015-2017         AbbrJa00   A     
#>  6 Duke Abbruzzi (HB-DB) 1946-1946         AbbrDu20   A     
#>  7 Mehdi Abdesmad (DE) 2016-2016           AbdeMe00   A     
#>  8 Karim Abdul-Jabbar (RB) 1996-2000       AbduKa00   A     
#>  9 Isa Abdul-Quddus (S) 2011-2016          AbduIs00   A     
#> 10 Ameer Abdullah (RB) 2015-2023           AbduAm00   A     
#> # ℹ 868 more rows
```
…
